<svg width="20" height="20" viewBox="0 0 20 20" fill="none" xmlns="http://www.w3.org/2000/svg">
<circle cx="10" cy="10" r="10" fill="#DA2128"/>
<path d="M16.2777 6.12903H3.87109V13.7968H7.82722V9.66645H9.91294L12.4158 13.7968H16.5805L13.5259 9.16784C14.8043 8.56816 15.8068 7.46988 16.2777 6.12903Z" fill="white"/>
</svg>
