<svg width="200" height="200" viewBox="0 0 200 200" fill="none" xmlns="http://www.w3.org/2000/svg">
<path fill-rule="evenodd" clip-rule="evenodd" d="M58.2375 91.954C58.2375 83.4899 65.0991 76.6284 73.5632 76.6284H126.437C134.901 76.6284 141.762 83.4899 141.762 91.954V131.034C141.762 139.499 134.901 146.36 126.437 146.36H73.5632C65.0991 146.36 58.2375 139.499 58.2375 131.034V91.954ZM73.5632 88.8889C71.8704 88.8889 70.4981 90.2612 70.4981 91.954V131.034C70.4981 132.727 71.8704 134.1 73.5632 134.1H126.437C128.13 134.1 129.502 132.727 129.502 131.034V91.954C129.502 90.2612 128.13 88.8889 126.437 88.8889H73.5632Z" fill="#27A4FF"/>
<path fill-rule="evenodd" clip-rule="evenodd" d="M100.072 51.3428C113.573 51.5015 126.437 62.0067 126.437 80.4598H114.176C114.176 68.7408 106.733 63.6825 99.928 63.6025C96.3824 63.5608 92.9353 64.8527 90.379 67.4149C87.8738 69.926 85.8238 74.067 85.8238 80.4598H73.5632C73.5632 71.2891 76.5899 63.8769 81.6995 58.7554C86.7582 53.6851 93.4643 51.2651 100.072 51.3428Z" fill="#27A4FF"/>
<path d="M109.788 105.02C109.788 110.63 105.24 115.178 99.63 115.178C94.02 115.178 89.4722 110.63 89.4722 105.02C89.4722 99.4103 94.02 94.8625 99.63 94.8625C105.24 94.8625 109.788 99.4103 109.788 105.02Z" fill="#27A4FF"/>
<path d="M95.2136 111.645H104.046V128.427H95.2136V111.645Z" fill="#27A4FF"/>
<path fill-rule="evenodd" clip-rule="evenodd" d="M100 15.3257C53.2357 15.3257 15.3257 53.2357 15.3257 100C15.3257 146.764 53.2357 184.674 100 184.674C146.764 184.674 184.674 146.764 184.674 100C184.674 53.2357 146.764 15.3257 100 15.3257ZM0 100C0 44.7715 44.7715 0 100 0C155.228 0 200 44.7715 200 100C200 155.228 155.228 200 100 200C44.7715 200 0 155.228 0 100Z" fill="#27A4FF"/>
</svg>
